EESchema Schematic File Version 2
LIBS:power
LIBS:device
LIBS:transistors
LIBS:conn
LIBS:linear
LIBS:regul
LIBS:74xx
LIBS:cmos4000
LIBS:adc-dac
LIBS:memory
LIBS:xilinx
LIBS:special
LIBS:microcontrollers
LIBS:dsp
LIBS:microchip
LIBS:analog_switches
LIBS:motorola
LIBS:texas
LIBS:intel
LIBS:audio
LIBS:interface
LIBS:digital-audio
LIBS:philips
LIBS:display
LIBS:cypress
LIBS:siliconi
LIBS:opto
LIBS:atmel
LIBS:contrib
LIBS:valves
EELAYER 24 0
EELAYER END
$Descr A4 11693 8268
encoding utf-8
Sheet 1 1
Title ""
Date ""
Rev ""
Comp ""
Comment1 ""
Comment2 ""
Comment3 ""
Comment4 ""
$EndDescr
$Comp
L ATTINY13-S IC1
U 1 1 545FDFA2
P 2175 1300
F 0 "IC1" H 1375 1700 40  0000 C CNN
F 1 "ATTINY13-S" H 2825 900 40  0000 C CNN
F 2 "SMD_Packages:SSOP-8" H 2825 1300 35  0000 C CIN
F 3 "" H 1375 1650 60  0000 C CNN
	1    2175 1300
	1    0    0    -1  
$EndComp
$Comp
L CONN_01X04 P2
U 1 1 545FE017
P 800 1500
F 0 "P2" H 800 1750 50  0000 C CNN
F 1 "CONN_01X04" V 900 1500 50  0000 C CNN
F 2 "Pin_Headers:Pin_Header_Straight_1x04" H 800 1500 60  0001 C CNN
F 3 "" H 800 1500 60  0000 C CNN
	1    800  1500
	-1   0    0    1   
$EndComp
$Comp
L CONN_01X04 P1
U 1 1 545FE082
P 800 900
F 0 "P1" H 800 1150 50  0000 C CNN
F 1 "CONN_01X04" V 900 900 50  0000 C CNN
F 2 "Pin_Headers:Pin_Header_Straight_1x04" H 800 900 60  0001 C CNN
F 3 "" H 800 900 60  0000 C CNN
	1    800  900 
	-1   0    0    1   
$EndComp
Wire Wire Line
	1000 1450 1175 1450
Wire Wire Line
	1000 1550 1100 1550
Wire Wire Line
	1100 1550 1100 1350
Wire Wire Line
	1100 1350 1175 1350
Wire Wire Line
	1000 1650 1175 1650
Wire Wire Line
	1175 1650 1175 1550
Wire Wire Line
	1000 1350 1050 1350
Wire Wire Line
	1050 1350 1050 1750
Wire Wire Line
	1050 1750 3175 1750
Wire Wire Line
	3175 1500 3175 1800
Wire Wire Line
	1000 1050 1175 1050
Wire Wire Line
	1000 950  1125 950 
Wire Wire Line
	1125 950  1125 1150
Wire Wire Line
	1125 1150 1175 1150
Wire Wire Line
	1000 850  1075 850 
Wire Wire Line
	1075 850  1075 1250
Wire Wire Line
	1075 1250 1175 1250
Wire Wire Line
	1000 750  3175 750 
Wire Wire Line
	3175 700  3175 1100
$Comp
L C C1
U 1 1 545FE1E5
P 3175 1300
F 0 "C1" H 3175 1400 40  0000 L CNN
F 1 "100nF" H 3181 1215 40  0000 L CNN
F 2 "SMD_Packages:SMD-1206" H 3213 1150 30  0001 C CNN
F 3 "" H 3175 1300 60  0000 C CNN
	1    3175 1300
	1    0    0    -1  
$EndComp
Connection ~ 3175 1050
Connection ~ 3175 1550
$Comp
L PWR_FLAG #FLG01
U 1 1 545FE2DB
P 3175 700
F 0 "#FLG01" H 3175 795 30  0001 C CNN
F 1 "PWR_FLAG" H 3175 880 30  0000 C CNN
F 2 "" H 3175 700 60  0000 C CNN
F 3 "" H 3175 700 60  0000 C CNN
	1    3175 700 
	1    0    0    -1  
$EndComp
Connection ~ 3175 750 
$Comp
L PWR_FLAG #FLG02
U 1 1 545FE33F
P 3450 700
F 0 "#FLG02" H 3450 795 30  0001 C CNN
F 1 "PWR_FLAG" H 3450 880 30  0000 C CNN
F 2 "" H 3450 700 60  0000 C CNN
F 3 "" H 3450 700 60  0000 C CNN
	1    3450 700 
	1    0    0    -1  
$EndComp
$Comp
L GND #PWR03
U 1 1 545FE35F
P 3450 750
F 0 "#PWR03" H 3450 750 30  0001 C CNN
F 1 "GND" H 3450 680 30  0001 C CNN
F 2 "" H 3450 750 60  0000 C CNN
F 3 "" H 3450 750 60  0000 C CNN
	1    3450 750 
	1    0    0    -1  
$EndComp
Wire Wire Line
	3450 700  3450 750 
$Comp
L GND #PWR04
U 1 1 545FE3CF
P 3175 1800
F 0 "#PWR04" H 3175 1800 30  0001 C CNN
F 1 "GND" H 3175 1730 30  0001 C CNN
F 2 "" H 3175 1800 60  0000 C CNN
F 3 "" H 3175 1800 60  0000 C CNN
	1    3175 1800
	1    0    0    -1  
$EndComp
Connection ~ 3175 1750
$EndSCHEMATC
