EESchema Schematic File Version 2
LIBS:power
LIBS:device
LIBS:transistors
LIBS:conn
LIBS:linear
LIBS:regul
LIBS:74xx
LIBS:cmos4000
LIBS:adc-dac
LIBS:memory
LIBS:xilinx
LIBS:special
LIBS:microcontrollers
LIBS:dsp
LIBS:microchip
LIBS:analog_switches
LIBS:motorola
LIBS:texas
LIBS:intel
LIBS:audio
LIBS:interface
LIBS:digital-audio
LIBS:philips
LIBS:display
LIBS:cypress
LIBS:siliconi
LIBS:opto
LIBS:atmel
LIBS:contrib
LIBS:valves
LIBS:hetii
LIBS:$conbox-cache
EELAYER 24 0
EELAYER END
$Descr A4 11693 8268
encoding utf-8
Sheet 1 1
Title ""
Date ""
Rev ""
Comp ""
Comment1 ""
Comment2 ""
Comment3 ""
Comment4 ""
$EndDescr
$Comp
L HBB14 T1
U 1 1 545F8F7D
P 2900 1750
F 0 "T1" H 2125 2700 70  0000 C CNN
F 1 "HBB14" H 2900 2700 70  0000 C CNN
F 2 "" H 2375 1375 60  0000 C CNN
F 3 "" H 2375 1375 60  0000 C CNN
	1    2900 1750
	1    0    0    -1  
$EndComp
$Comp
L AMP-RJ45 P3
U 1 1 545FA8A0
P 5600 1075
F 0 "P3" H 4875 1475 60  0000 C CNN
F 1 "AMP-RJ45" H 5600 1025 60  0000 C CNN
F 2 "" V 5500 875 60  0000 C CNN
F 3 "" V 5500 875 60  0000 C CNN
	1    5600 1075
	1    0    0    -1  
$EndComp
Wire Wire Line
	4125 875  4275 875 
Wire Wire Line
	4125 1125 4275 1125
Wire Wire Line
	4125 2375 4275 2375
Wire Wire Line
	4125 2625 4275 2625
Entry Wire Line
	4375 975  4275 875 
Entry Wire Line
	4375 1225 4275 1125
Entry Wire Line
	4275 2625 4375 2525
Entry Wire Line
	4275 2375 4375 2275
Wire Wire Line
	5400 1775 5400 1625
Wire Wire Line
	5300 1775 5300 1625
Wire Wire Line
	5800 1775 5800 1625
Wire Wire Line
	5500 1775 5500 1625
Entry Wire Line
	5200 1875 5300 1775
Entry Wire Line
	5300 1875 5400 1775
Entry Wire Line
	5400 1875 5500 1775
Entry Wire Line
	5700 1875 5800 1775
Wire Bus Line
	4375 975  4375 2525
Text Label 4125 875  0    60   ~ 0
RX+
Text Label 4125 1125 0    60   ~ 0
RX-
Text Label 4125 2375 0    60   ~ 0
TX+
Text Label 4125 2625 0    60   ~ 0
TX-
Text Label 5300 1625 3    60   ~ 0
TX+
Text Label 5400 1625 3    60   ~ 0
TX-
Text Label 5500 1625 3    60   ~ 0
RX+
Text Label 5800 1625 3    60   ~ 0
RX-
$Comp
L GND #PWR01
U 1 1 545FAF32
P 4550 1125
F 0 "#PWR01" H 4550 1125 30  0001 C CNN
F 1 "GND" H 4550 1055 30  0001 C CNN
F 2 "" H 4550 1125 60  0000 C CNN
F 3 "" H 4550 1125 60  0000 C CNN
	1    4550 1125
	1    0    0    -1  
$EndComp
$Comp
L GND #PWR02
U 1 1 545FAF54
P 6600 1125
F 0 "#PWR02" H 6600 1125 30  0001 C CNN
F 1 "GND" H 6600 1055 30  0001 C CNN
F 2 "" H 6600 1125 60  0000 C CNN
F 3 "" H 6600 1125 60  0000 C CNN
	1    6600 1125
	1    0    0    -1  
$EndComp
Wire Wire Line
	6600 1025 6600 1125
Wire Wire Line
	4550 925  4550 1125
$Comp
L GND #PWR03
U 1 1 545FB048
P 5000 1725
F 0 "#PWR03" H 5000 1725 30  0001 C CNN
F 1 "GND" H 5000 1655 30  0001 C CNN
F 2 "" H 5000 1725 60  0000 C CNN
F 3 "" H 5000 1725 60  0000 C CNN
	1    5000 1725
	1    0    0    -1  
$EndComp
$Comp
L GND #PWR04
U 1 1 545FB06E
P 6300 1725
F 0 "#PWR04" H 6300 1725 30  0001 C CNN
F 1 "GND" H 6300 1655 30  0001 C CNN
F 2 "" H 6300 1725 60  0000 C CNN
F 3 "" H 6300 1725 60  0000 C CNN
	1    6300 1725
	1    0    0    -1  
$EndComp
Wire Wire Line
	6300 1725 6300 1625
Wire Wire Line
	5000 1625 5000 1725
Wire Wire Line
	4850 1775 4850 1625
Text Label 4850 1625 3    60   ~ 0
R+
Wire Wire Line
	5150 1775 5150 1625
Text Label 5150 1625 3    60   ~ 0
G+
Wire Wire Line
	6150 1775 6150 1625
Text Label 6150 1625 3    60   ~ 0
Y+
$Comp
L CONN_01X04 P1
U 1 1 545FB53C
P 1250 1275
F 0 "P1" H 1250 1525 50  0000 C CNN
F 1 "CONN_01X04" V 1350 1275 50  0000 C CNN
F 2 "" H 1250 1275 60  0000 C CNN
F 3 "" H 1250 1275 60  0000 C CNN
	1    1250 1275
	-1   0    0    -1  
$EndComp
Wire Wire Line
	1450 1125 1725 1125
Wire Wire Line
	1450 1225 1575 1225
Wire Wire Line
	1575 1225 1575 875 
Wire Wire Line
	1450 1325 1575 1325
Wire Wire Line
	1575 1325 1575 2625
Wire Wire Line
	1575 2625 1725 2625
Wire Wire Line
	1450 1425 1450 2375
Wire Wire Line
	1450 2375 1725 2375
$Comp
L CONN_01X06 P2
U 1 1 545FBAC9
P 4625 2225
F 0 "P2" H 4625 2575 50  0000 C CNN
F 1 "CONN_01X06" V 4725 2225 50  0000 C CNN
F 2 "" H 4625 2225 60  0000 C CNN
F 3 "" H 4625 2225 60  0000 C CNN
	1    4625 2225
	-1   0    0    1   
$EndComp
Wire Wire Line
	4825 1975 4975 1975
Text Label 4825 2075 0    60   ~ 0
R+
Entry Wire Line
	4975 1975 5075 2075
Wire Wire Line
	4825 2075 4975 2075
Text Label 4825 1975 0    60   ~ 0
G+
Entry Wire Line
	4975 2075 5075 2175
Wire Wire Line
	4825 2175 4975 2175
Text Label 4825 2175 0    60   ~ 0
Y+
Entry Wire Line
	4975 2175 5075 2275
Wire Wire Line
	4825 2275 4975 2275
Text Label 4825 2475 0    60   ~ 0
GND
Entry Wire Line
	4975 2275 5075 2375
Wire Wire Line
	4825 2375 4975 2375
Text Label 4825 2375 0    60   ~ 0
B1
Entry Wire Line
	4975 2375 5075 2475
Wire Wire Line
	4825 2475 4975 2475
Text Label 4825 2275 0    60   ~ 0
B2
Entry Wire Line
	4975 2475 5075 2575
Wire Bus Line
	5075 2575 5075 1875
Wire Wire Line
	5600 1625 5700 1625
Wire Wire Line
	5900 1625 6000 1625
Wire Wire Line
	5600 1625 5600 1775
Entry Wire Line
	5500 1875 5600 1775
Wire Wire Line
	5900 1625 5900 1775
Entry Wire Line
	5800 1875 5900 1775
Entry Wire Line
	5050 1875 5150 1775
Entry Wire Line
	4750 1875 4850 1775
Entry Wire Line
	6050 1875 6150 1775
Text Label 5600 1775 1    60   ~ 0
B1
Text Label 5900 1775 1    60   ~ 0
B2
Wire Bus Line
	6050 1875 4375 1875
$Comp
L R R1
U 1 1 545FC6E9
P 4800 2800
F 0 "R1" V 4880 2800 40  0000 C CNN
F 1 "75" V 4807 2801 40  0000 C CNN
F 2 "" V 4730 2800 30  0000 C CNN
F 3 "" H 4800 2800 30  0000 C CNN
	1    4800 2800
	0    1    1    0   
$EndComp
$Comp
L R R2
U 1 1 545FC9C6
P 4800 3000
F 0 "R2" V 4880 3000 40  0000 C CNN
F 1 "75" V 4807 3001 40  0000 C CNN
F 2 "" V 4730 3000 30  0000 C CNN
F 3 "" H 4800 3000 30  0000 C CNN
	1    4800 3000
	0    1    1    0   
$EndComp
$Comp
L C C2
U 1 1 545FCA53
P 5250 3200
F 0 "C2" H 5250 3300 40  0000 L CNN
F 1 "C" H 5256 3115 40  0000 L CNN
F 2 "" H 5288 3050 30  0000 C CNN
F 3 "" H 5250 3200 60  0000 C CNN
	1    5250 3200
	1    0    0    -1  
$EndComp
$Comp
L GND #PWR05
U 1 1 545FCCE7
P 5250 3500
F 0 "#PWR05" H 5250 3500 30  0001 C CNN
F 1 "GND" H 5250 3430 30  0001 C CNN
F 2 "" H 5250 3500 60  0000 C CNN
F 3 "" H 5250 3500 60  0000 C CNN
	1    5250 3500
	1    0    0    -1  
$EndComp
Wire Wire Line
	5250 3400 5250 3500
Wire Wire Line
	5250 3000 5050 3000
Wire Wire Line
	5050 3000 5050 2800
NoConn ~ 1725 1375
$Comp
L GND #PWR06
U 1 1 545FCE72
P 1250 2650
F 0 "#PWR06" H 1250 2650 30  0001 C CNN
F 1 "GND" H 1250 2580 30  0001 C CNN
F 2 "" H 1250 2650 60  0000 C CNN
F 3 "" H 1250 2650 60  0000 C CNN
	1    1250 2650
	1    0    0    -1  
$EndComp
$Comp
L C C1
U 1 1 545FCE8D
P 1250 2325
F 0 "C1" H 1250 2425 40  0000 L CNN
F 1 "100nF" H 1256 2240 40  0000 L CNN
F 2 "" H 1288 2175 30  0000 C CNN
F 3 "" H 1250 2325 60  0000 C CNN
	1    1250 2325
	1    0    0    -1  
$EndComp
Wire Wire Line
	1250 2525 1250 2650
Wire Wire Line
	1725 2125 1250 2125
Wire Wire Line
	4125 2125 4400 2125
Wire Wire Line
	4400 2125 4400 3000
Wire Wire Line
	4400 3000 4550 3000
Wire Wire Line
	4125 1375 4450 1375
Wire Wire Line
	4450 1375 4450 2800
Wire Wire Line
	4450 2800 4550 2800
Text Label 6600 1025 0    60   ~ 0
GND
Wire Wire Line
	1575 875  1725 875 
$Comp
L PWR_FLAG #FLG07
U 1 1 545FE8F2
P 4550 925
F 0 "#FLG07" H 4550 1020 30  0001 C CNN
F 1 "PWR_FLAG" H 4550 1105 30  0000 C CNN
F 2 "" H 4550 925 60  0000 C CNN
F 3 "" H 4550 925 60  0000 C CNN
	1    4550 925 
	1    0    0    -1  
$EndComp
Connection ~ 4550 1025
$EndSCHEMATC
