(export (version D)
  (design
    (source /home/hetii/workspace/conn/$conbox.sch)
    (date "nie, 9 lis 2014, 22:21:33")
    (tool "Eeschema (2014-09-16 BZR 5138)-product"))
  (components
    (comp (ref T1)
      (value HBB14)
      (libsource (lib hetii) (part HBB14))
      (sheetpath (names /) (tstamps /))
      (tstamp 545F8F7D))
    (comp (ref P3)
      (value AMP-RJ45)
      (libsource (lib hetii) (part AMP-RJ45))
      (sheetpath (names /) (tstamps /))
      (tstamp 545FA8A0))
    (comp (ref P1)
      (value CONN_01X04)
      (libsource (lib conn) (part CONN_01X04))
      (sheetpath (names /) (tstamps /))
      (tstamp 545FB53C))
    (comp (ref P2)
      (value CONN_01X06)
      (libsource (lib conn) (part CONN_01X06))
      (sheetpath (names /) (tstamps /))
      (tstamp 545FBAC9))
    (comp (ref R1)
      (value 75)
      (libsource (lib device) (part R))
      (sheetpath (names /) (tstamps /))
      (tstamp 545FC6E9))
    (comp (ref R2)
      (value 75)
      (libsource (lib device) (part R))
      (sheetpath (names /) (tstamps /))
      (tstamp 545FC9C6))
    (comp (ref C2)
      (value C)
      (libsource (lib device) (part C))
      (sheetpath (names /) (tstamps /))
      (tstamp 545FCA53))
    (comp (ref C1)
      (value 100nF)
      (libsource (lib device) (part C))
      (sheetpath (names /) (tstamps /))
      (tstamp 545FCE8D)))
  (libparts
    (libpart (lib device) (part C)
      (description "Condensateur non polarise")
      (footprints
        (fp SM*)
        (fp C?)
        (fp C1-1))
      (fields
        (field (name Reference) C)
        (field (name Value) C))
      (pins
        (pin (num 1) (name ~) (type passive))
        (pin (num 2) (name ~) (type passive))))
    (libpart (lib device) (part R)
      (description Resistance)
      (footprints
        (fp R?)
        (fp SM0603)
        (fp SM0805)
        (fp R?-*)
        (fp SM1206))
      (fields
        (field (name Reference) R)
        (field (name Value) R))
      (pins
        (pin (num 1) (name ~) (type passive))
        (pin (num 2) (name ~) (type passive))))
    (libpart (lib conn) (part CONN_01X04)
      (footprints
        (fp Pin_Header_Straight_1X04)
        (fp Pin_Header_Angled_1X04)
        (fp Socket_Strip_Straight_1X04)
        (fp Socket_Strip_Angled_1X04))
      (fields
        (field (name Reference) P)
        (field (name Value) CONN_01X04))
      (pins
        (pin (num 1) (name P1) (type passive))
        (pin (num 2) (name P2) (type passive))
        (pin (num 3) (name P3) (type passive))
        (pin (num 4) (name P4) (type passive))))
    (libpart (lib conn) (part CONN_01X06)
      (footprints
        (fp Pin_Header_Straight_1X06)
        (fp Pin_Header_Angled_1X06)
        (fp Socket_Strip_Straight_1X06)
        (fp Socket_Strip_Angled_1X06))
      (fields
        (field (name Reference) P)
        (field (name Value) CONN_01X06))
      (pins
        (pin (num 1) (name P1) (type passive))
        (pin (num 2) (name P2) (type passive))
        (pin (num 3) (name P3) (type passive))
        (pin (num 4) (name P4) (type passive))
        (pin (num 5) (name P5) (type passive))
        (pin (num 6) (name P6) (type passive))))
    (libpart (lib hetii) (part AMP-RJ45)
      (description "AMP RJ45 connector")
      (fields
        (field (name Reference) P)
        (field (name Value) AMP-RJ45))
      (pins
        (pin (num 1) (name TX+) (type passive))
        (pin (num 2) (name TX-) (type passive))
        (pin (num 3) (name RX+) (type passive))
        (pin (num 4) (name B1+) (type BiDi))
        (pin (num 5) (name B1-) (type BiDi))
        (pin (num 6) (name RX-) (type passive))
        (pin (num 7) (name B2+) (type BiDi))
        (pin (num 8) (name B2-) (type BiDi))
        (pin (num 9) (name R+) (type passive))
        (pin (num 10) (name RG-) (type passive))
        (pin (num 11) (name G+) (type passive))
        (pin (num 12) (name Y+) (type passive))
        (pin (num 13) (name Y-) (type passive))
        (pin (num 14) (name SHIELD) (type passive))
        (pin (num 15) (name SHIELD) (type passive))))
    (libpart (lib hetii) (part HBB14)
      (description "SINGLE PORT INTERFACE FOR 10/100BASE-T APPLICATIONS.")
      (fields
        (field (name Reference) T)
        (field (name Value) HBB14))
      (pins
        (pin (num 1) (name RD+) (type passive))
        (pin (num 2) (name RD-) (type passive))
        (pin (num 3) (name RCT) (type passive))
        (pin (num 4) (name NC) (type NotConnected))
        (pin (num 5) (name NC) (type NotConnected))
        (pin (num 6) (name TCT) (type passive))
        (pin (num 7) (name TD+) (type passive))
        (pin (num 8) (name TD-) (type passive))
        (pin (num 9) (name TX-) (type passive))
        (pin (num 10) (name TX+) (type passive))
        (pin (num 11) (name CMT) (type passive))
        (pin (num 12) (name NC) (type NotConnected))
        (pin (num 13) (name NC) (type NotConnected))
        (pin (num 14) (name CMT) (type passive))
        (pin (num 15) (name RX-) (type passive))
        (pin (num 16) (name RX+) (type passive)))))
  (libraries
    (library (logical device)
      (uri /usr/local/share/kicad/library/device.lib))
    (library (logical conn)
      (uri /usr/local/share/kicad/library/conn.lib))
    (library (logical hetii)
      (uri /home/hetii/workspace/kicadlib/hetii.lib)))
  (nets
    (net (code 1) (name GND)
      (node (ref P3) (pin 14))
      (node (ref P2) (pin 1))
      (node (ref P3) (pin 13))
      (node (ref P3) (pin 10))
      (node (ref C2) (pin 2))
      (node (ref C1) (pin 2))
      (node (ref P3) (pin 15)))
    (net (code 2) (name /G+)
      (node (ref P3) (pin 11))
      (node (ref P2) (pin 6)))
    (net (code 3) (name /R+)
      (node (ref P3) (pin 9))
      (node (ref P2) (pin 5)))
    (net (code 4) (name /Y+)
      (node (ref P2) (pin 4))
      (node (ref P3) (pin 12)))
    (net (code 5) (name /B2)
      (node (ref P3) (pin 8))
      (node (ref P3) (pin 7))
      (node (ref P2) (pin 3)))
    (net (code 6) (name /B1)
      (node (ref P3) (pin 4))
      (node (ref P2) (pin 2))
      (node (ref P3) (pin 5)))
    (net (code 7) (name "Net-(P1-Pad4)")
      (node (ref P1) (pin 4))
      (node (ref T1) (pin 7)))
    (net (code 8) (name "Net-(P1-Pad3)")
      (node (ref P1) (pin 3))
      (node (ref T1) (pin 8)))
    (net (code 9) (name "Net-(P1-Pad2)")
      (node (ref T1) (pin 1))
      (node (ref P1) (pin 2)))
    (net (code 10) (name "Net-(P1-Pad1)")
      (node (ref T1) (pin 2))
      (node (ref P1) (pin 1)))
    (net (code 11) (name "Net-(C1-Pad1)")
      (node (ref T1) (pin 6))
      (node (ref C1) (pin 1)))
    (net (code 12) (name "Net-(R2-Pad2)")
      (node (ref T1) (pin 11))
      (node (ref R2) (pin 2)))
    (net (code 13) (name "Net-(T1-Pad3)")
      (node (ref T1) (pin 3)))
    (net (code 14) (name "Net-(R1-Pad2)")
      (node (ref R1) (pin 2))
      (node (ref T1) (pin 14)))
    (net (code 15) (name "Net-(C2-Pad1)")
      (node (ref C2) (pin 1))
      (node (ref R1) (pin 1))
      (node (ref R2) (pin 1)))
    (net (code 16) (name /TX-)
      (node (ref P3) (pin 2))
      (node (ref T1) (pin 9)))
    (net (code 17) (name /RX+)
      (node (ref P3) (pin 3))
      (node (ref T1) (pin 16)))
    (net (code 18) (name /RX-)
      (node (ref T1) (pin 15))
      (node (ref P3) (pin 6)))
    (net (code 19) (name /TX+)
      (node (ref T1) (pin 10))
      (node (ref P3) (pin 1)))
    (net (code 20) (name "Net-(T1-Pad13)")
      (node (ref T1) (pin 13)))
    (net (code 21) (name "Net-(T1-Pad12)")
      (node (ref T1) (pin 12)))
    (net (code 22) (name "Net-(T1-Pad5)")
      (node (ref T1) (pin 5)))
    (net (code 23) (name "Net-(T1-Pad4)")
      (node (ref T1) (pin 4)))))